{
    "results":[
       "0x03FB91643C85fEffEe96a2C627f23A3141392672",
       "0x10FafE48F09CD304E26F704a7EE743c4CbDc61C1",
       "0x22189501c463542E035920308c3E48D5F97C8618",
       "0x7800cf4DdE7ddff57faFa5bCD7f0BB281608831B",
       "0x6b24eEFA6894B75f0D5A37F00AB975d9730317Fb",
       "0x4046d9265f3a2E9b0Ba8EE61A1a8bC8093CEfd53",
       "0x491847c0314073e0454cFc3bf6cf080129c3f5D2",
       "0x61F91266F6abEA61447E00EB781A3c38a3D1b925",
       "0x5eA613995FA19955E63adc2389F69BC7Ce119d76",
       "0x4a797b122dF28E3782Bbb7ccA31a802F11B96f75",
       "0xF190579aE5E6aac6cEBA5ea3F48DAC66C93925c2",
       "0x7aA3BaaCf28d344B499faed1D80579A8C65487af",
       "0xC2e3E03dFce83913EAb31F78238a625B07378f8B",
       "0x7Cdfd56883ADCA47f787A251511B5A36e2A2f7e0",
       "0xFfdb1c4aCe237B10ef5Bd83ec2e6E24D2784225c",
       "0x9Ca449fAa18F85a60e918Acad38702831C7D605e",
       "0xB759a0fbc1dA517aF257D5Cf039aB4D86dFB3b94",
       "0x0233034E099689626632fc111fBc98B0FF69ce2C",
       "0x175A568F4FC355A8B8f287Fedb45BcE129C71bA2",
       "0xF8Ec125B2FD4585808429d29c0C4891E930b4F64",
       "0x7b7F2a9DD1281Fb31ec0e216dC327d310132818B",
       "0x007B4BaD196fac913Bc40E0d600Bd827Fdf52327",
       "0x03237c372AcD10Cc749253a2ea2aAfBfD49C6A18",
       "0xFD0E22f1142ED89bD91157266Bb465B3b57f6A73",
       "0x0A100F4fbcDC3584066F2f56094140Bb5F5fA85E",
       "0x1D4c151bFba703Ed6279D603d88257a654ab0010",
       "0x182A0a24C09Afa4B60CA25E7Ad23e992114c10Ed",
       "0x16E117f9d3e0952a07CaCC448CEe548cad123Ea9",
       "0xd57866e5b0616A7d5De614877b73facA5C0BE38b",
       "0x1A7Da4B2C86Cb3Db8D71982d705f3c67EE82f641",
       "0x2153F4a139825Af5813ea6F23922075FceB3A074",
       "0x1a6f9E92036752eD432602f99A288C12643323d7",
       "0x232f7a267817794301A4ac585799127f1b997BD8",
       "0x1cc073e86Db434df912D35B26fC2b41c46a78A2a",
       "0x158fB6a68BE5c264329E3A89Fa9F281925776360",
       "0x25b6031127505279711B665e7B5658d6963E579f",
       "0x19a5E5CfcB447FB888C8BD1e4B88CAD2416e0D89",
       "0x217dbC106AA40479Cf367C1191a59FBBB6C85Bc6",
       "0x2639823b88436aa3da35CDbC84eDD7fb2FeD1ceE",
       "0x2E84400877422B632B89861F7F7a5D4b9160B78C",
       "0x21c12A8A12240417ECcFCe47645152EEbaaB8035",
       "0x326A7aC28Ca63CD928203A1645e879A0D884273e",
       "0x358eB0B54D7f7dF4360902dC89B2C5C13A7914a6",
       "0x2df609D3468a228b4a6f753B5816128D7f88A815",
       "0x3d4BA2E0884aa488718476ca2FB8Efc291A46199",
       "0x41675C099F32341bf84BFc5382aF534df5C7461a",
       "0x29fcB43b46531BcA003ddC8FCB67FFE91900C762",
       "0x38869bf66a61cF6bDB996A6aE40D5853Fd43B526",
       "0x3C74f783A3F50651dD116eE8432B15B418607F23",
       "0x4AFEDf780306fa38AF081b1B1aAdA918C8941715",
       "0x33340BdC56E220741846684A93E7E08D4495Dca6",
       "0x34b9F2E1d9eF8e270E5AF6e0991bc8023E9906C3",
       "0x24390e1F72Fba16f781F6AF41542572bb5bFca42",
       "0x38e313d8Dd5B50303A8444bdfc4035CDc1C431F6",
       "0x5d8D06480DEAD91c22D9fe4CEA4D39Bd803a3f8b",
       "0x4874c1EC02c122Dfb29C994264dFCC4aD9FA8b96",
       "0x48E46B50392051B2f7f8204F7f1bd6b4CD981542",
       "0x32Cf4dCFfdc6Ed1a045f212Eacc7ed8a1E94f530",
       "0x69e6d1F85BB4E051C24ee5D2B9341E1F735A3454",
       "0x38FF18441b182ac603aADCA8ADDb257c6F5d103d",
       "0x4B7228e9b9A257b02C967686FcDD64c24AaEDCF7",
       "0x57633118AeB78f8b91de4335119394e0604Dfd73",
       "0x4b54A40d85F6a7b6A7827eE00c91aEbcf3E735d8",
       "0x3E0B62d747C91275251F66fb243ae90FDCaD17f9",
       "0x71AcC47973da2E4a484caF7272Da162F4Dd8F49b",
       "0x4e1DCf7AD4e460CfD30791CCC4F9c8a4f820ec67",
       "0x4b7FCD597369084cEDFbd8BbCC176E66777EDF96",
       "0x7733B83BE36eABFc9BD1e29EB4B0f76792608DDe",
       "0x736cbB6a7E2e794b44270DFe718b8830d53943A2",
       "0x670f102d04cEa00e4D58dcc8Db98fFaF010e5A52",
       "0x77CBEC6F2a0B08fF0DC1c026012ddB4ea651871F",
       "0x4188A7d16f65F105603D243EdFe00E20C4c7f204",
       "0x64edf78B053C620655B5e8D0C3539Ffb7e6A103a",
       "0x5cAaA62aD13Ed1D8bD595E7aafeE2fC43735A7Bc",
       "0x70198180C230169b82d3822eA264D9d06C723C61",
       "0x63c13Ee9BecC8f35dC034F026Ae8d18A4D1E7f0E",
       "0x9D8446FB7d8626634307E87b1E6835BB730C666F",
       "0x7DB90F79acAB311271E217b4712082d250F8e8d7",
       "0x9a15222BBE0Ef08432fed68B86c919088fc0BbDF",
       "0x68BD195a1333acf4e59F4BABE70D343CfeE34b12",
       "0x6b8DCFe8EF413CAa36d71d9D6E5b13cfF4fe8780",
       "0x6522f92B1F5d3F849BFe2560c487f5E0aCd29Ca6",
       "0x817a471763D28064A29E38D9877cBD8372035cFF",
       "0x70B46Dc19E7372e67c50E9076F2BE8291FDFB416",
       "0x9b35Af71d77eaf8d7e40252370304687390A1A52",
       "0x9245483dB42fFa2087b0577bF247a0cbaaef2E84",
       "0x7aD14dBBfD642AD6f7713228e427B1a92e6E851D",
       "0x8e29375FE5Db7eBb1b5eF24B7D397bBF0B01De09",
       "0x9641d764fc13c8B624c04430C7356C1C7C8102e2",
       "0x7C1839b90cfAaE49EaEa9f6fa312eAb148d64070",
       "0x9d479Cab252338eCE2FFc690EE4D4b14E32b2895",
       "0x8A53e60A3f448bBB1d00C8B29440E59Ba4ec3f57",
       "0x95bCB5194140101941917770419Ac2347c1ecbc5",
       "0x7F67316a754f3953617FEA14227ccC4E018f4E7b",
       "0xA03c4CDB6f1174F7efa649dD7F96E8ccdeC4a656",
       "0x968989eDFAB00952B5F38130Fe6178f82d54590e",
       "0x2B3a1D3d5e60767BDAd69A717A7538265e7ac1cb",
       "0x47b0a432C455804Fc2A5cAe1685Dd224EB104aCF",
       "0x744c272c12D6c2417a0a99C69CaAD3719bc14E1C",
       "0x63E22Ba5c1472a8EeDF5de4B7C454D5554c584a1",
       "0x9A4c4c4875Ab8f61D3Ce53440a3569273DA6b251",
       "0x91ebF577eE06A581536606f0070281dB7e0690fd",
       "0xA3D25E562022290ab03797A1c023942AD0fA5F91",
       "0xAddf9f82eFb4a4dC555e9f83EB66fE6e608eF4Bc",
       "0xA48361Bb19F3b4985F23fAf69D94602186399994",
       "0xE46FE78DBfCa5E835667Ba9dCd3F3315E7623F8a",
       "0xB5611327e3EAB4bb1FB9A91DE1f324b8C3F20c6C",
       "0xB7eEB78904F35744993885282544be64edF49260",
       "0xE6fbCC04F4f41bFb6DF3388329C86C77aea765ae",
       "0xC16d9b4AD3c3B45fAb5d8F79ba986069E4403c58",
       "0xFe49e0f2eAab84558047Bdd7AF738c1a22F9C83b",
       "0xDAE0C24bF069dCe60bdAB9658465C7e8e5b03c99",
       "0xA529a66f14f9596c5D65cb5bc81D59ac8B4b9FE5",
       "0xA878ed2d60B3E71E8A8713c5c0416090D8e7Cf5D",
       "0xF1cfAB193bbA41541601da794d0e850b0A09b92D",
       "0xAf99bbA160E1d372f96de8BBd39425E3FFd2fe7D",
       "0xca5B5E9371e6AedD850a74554a53BA91D2D3508d",
       "0xD10446709EB406C25B6E4E7F7cd0D5B0B7F48A19",
       "0xC2D303eE8ED966D0085D17717a36E5432F0E588a",
       "0xd53cd0aB83D845Ac265BE939c57F53AD838012c9",
       "0xdFA7c11836795ACd291401ed691073B40B1905D2",
       "0xd64a57003526ECe2e360b25A556963aB6E38407E",
       "0xdB3B75E1e96a025cb86Ff105EA6711e5648671B5",
       "0xdAB5845136b3102E63023BB2A2405cb71608605d",
       "0x0Ba1cf45c336B847f6c4DBa4d86CCd5c8b7beB58",
       "0xD538C945FB8E7d936BC2BAC43C2f1720c9f24CB7",
       "0xf125A87614fe2Da9d815f5943EDfeF6bB3E0B521",
       "0xe316e0f08A1c5c7bAfF7CCB5CD2F517033368Bb5",
       "0xefe86329296Bf2f2fB3C4fF5545Dca8736fB2e71",
       "0xd9FBE086D149a83039bc291b7101e892F53BD431",
       "0xeDCF620325E82e3B9836eaaeFdc4283E99Dd7562",
       "0xfd0732Dc9E303f09fCEf3a7388Ad10A83459Ec99",
       "0xeCcC3f1D9Bed269435F5737B6718Fc0F86d1b0E2",
       "0x092270546c6F7553BB8640139373178c8d3921C1",
       "0x2701DFfa3DE15C998d2DD997107BF0A3e229128C",
       "0xEF7B6b851D9Df5786B50D498c0F7c2D8349e186A",
       "0xe32aCE0B1C29a632d33E60Cc9390bA839ba3Ea29",
       "0xf814C57dd49d3E236b8da5ad922BFdCea769eb26",
       "0x41C716d69F7ae771406288F79eE0eB4bFc36719e",
       "0x4d73054e9a61b5E32037117E8902F2d9926794CA",
       "0xf2bca0D4F38FB75B54B31A0EEa48247530E00823",
       "0x715a7100130960ff4Aa440153b6b53245311d703",
       "0x62894583eADbabeacAb516449c5ca9515a4F18f4",
       "0x5aaFee0E22dE20bC4cA67eAE7559b7aC10eC7CD6",
       "0x787aEcBEdFAd4BED0F4ffbEF79722Ab8F83D30aC",
       "0xF95BFff26FE2d5e93a61AB453181014bFBc3d2F4",
       "0x2cee812ad2159Eb22D8403ccF494216BCC9cbDD4",
       "0x3bF62C3893Ae7098dA7654c6c9F79E02331C3b8e",
       "0xB19AF75bc9f26945F3968df92cFf5ce9A70d95Da",
       "0x998ae49baF9903d28506b332266dCCA2dD8156FF",
       "0x6EE9b6C399bB928069669940C917775A708E979A",
       "0xCf05273778a80416098eC9219F40caaEe9b27A36",
       "0x604DeB83Df738f266368DeAB4d0853Cff2233426",
       "0x64591E6eccE3b433A6AD3A0194f62f73252C96D1",
       "0x1093EEf0Aa58c9F250cFD324b68C8402741f8618",
       "0xC44a45106fDBE8550164251cf0CEF95889E7786e",
       "0xCC7dd438AA2920DdDDee4AE207CB6Fa974e53b88",
       "0xCe52FC2378a1bc2340FCB71cA963fBc5497CC712",
       "0xE79423232289465774c3f5403e85157b1e9E9F17",
       "0x7C2691Fb5171cca383AebbF132701BeFf18B4A9f",
       "0xBd2F9374Df2D6eD05C2300F042d31a8E5e8A16CB",
       "0x7a2Bc90944978Bc478408012a9C86A479307F942",
       "0x94Ab46C6568701F01FA4bc6c46c1E2CaA85B5812",
       "0xEeC3e4f4f17F672B0FA25DCd786F5dfC07a80106",
       "0xeaBa07925C57Cc24ddb8d43a6dEDC5493C190Ae4",
       "0x20b9434f61087bD66883b1Bb44f09840E78C8891",
       "0x0f7eD316BC3684ADBD5f87aBD04a6D3485AB4E3E",
       "0xe47240B6324D446B449a2D1A969A0EEFb5525C03",
       "0x50179b8820E9e0cA483Af605A1b1B2Ba93094d89",
       "0x04D68c8B7676cC6bc8d43d7135eaB4c382b20bC8",
       "0xFCed4006eDE94Fc8c24DB683ab7922FE20C34b2b",
       "0x51EbAA72d4640dEaAEafEC622147A44626f26384",
       "0x54D6544BD3ec5D7554B102498dC19CD862Db0eFc",
       "0xf9Ec4CCcb5E467898E57E44b519361af71827B06",
       "0xf29e9b50b82C0ecd573dc89ee49aA3e1247Dd9bF",
       "0x4407bc06B68Cf301A4BF886E3a46B3F294BD74b6",
       "0x696b9db604BA61308eb5c9A0dfda7E5b3af0E3bB",
       "0x978FB09800e574ab235B25d68E9eD855c477A0CA",
       "0xCa55bBcCDC91f8ea29Aa5CbD8C20C00b98131715",
       "0x2973E4147313d87DC576a09Cc5D34026A7e0de4F",
       "0xE00DA572A941363C82dfC81C56B44Cc22925A213",
       "0xcf1f66DEa9AC2e7818C43478dEBADCCc32C7E4Ef",
       "0xD50918C4A438a1B6EABb12A29a375c47e43C44a8",
       "0xD30906E081D6E7bf55A5438C245FbdABb5313464",
       "0x16a8B86D12F317d7c90d808775193d64BB5481Bc",
       "0x5FBC2A29f7C8e4533dECD14Dc1c561A8eF0d4e31",
       "0xbde8224d15885c2E46Be665b9392E619cD142de8",
       "0x315ef329D214cde5cE7C206104aC35B1fe66bb8c",
       "0x89b752C3e272feBA17B363EaaBFe0d653cF75bE7",
       "0xE3Cc97a969e7B032e33d6b45a6fB9363Db942BB5",
       "0x9Ab15cc945b2B58A51384539211dE8a88a1355E8",
       "0x33E8a07E6921d82e695d2253952c664c1213b966",
       "0xa24dbc5083c8E2a50e48a6778849bAd96A5A41C1",
       "0xf0B446FaA9132538d235042d9c44d8Eb498d1894",
       "0x03569510878C804C599bA6b4D4dE879F4618c77F",
       "0xb1bAF46e881166F86f23238050Be2a437ccD3ad9",
       "0xf151819D2295F0e22B4270c51eD0018051ED3ad6",
       "0xb403C1e931a879dB63AF936FE1aaA28f184e25f7",
       "0xC4FD0Bb68C10241A8010b9502dD6bF099458DEB8",
       "0x13AEcEA617AaEfB9A89b237f389D61499e0325AC"
    ],
    "pagination":{
       "currentPage":0,
       "resultsPerPage":200,
       "resultsCurrentPage":200,
       "totalResults":291,
       "totalPages":2,
       "hasNextPage":true,
       "hasPreviousPage":false
    }
 }
