{
    "results":[
       "0x52c24c63cC68ce6e055C7EFDfbA49299C90F6b20",
       "0x1FA563f951075E9bc32426E63560cd230318b22B",
       "0xa96E0E7E684512d0B340673fEbe3475e2502a784",
       "0xB7789f966565aadeA349A3B472BE7ff9C06d3490",
       "0x3b3223Ccf802E295202917330c59BD50f74d20aE",
       "0x9cd892c37258290Bcdc59dc8e159785fB0045b18",
       "0x3BE7A9E2526f6BE015F3b2b13fE5fB9444ADa20f",
       "0x0b97898Eaed8337ee38722BeEbeF0D80D64beDFD",
       "0xb4914dfeC7f70C708673620eDF6d8839F81E7612",
       "0x9B62e7DA903Bfce035aB2866AC7D2f573B1890B8",
       "0x8F3cd201e6557b26d3dd08DB822312Ad9A31BC71",
       "0xdA412123a3Cc0D921bcf7246f8742e3b7c3E7b94",
       "0xba5Ed099633D3B313e4D5F7bdc1305d3c28ba5Ed",
       "0x7023395e15D89995012bEF7d39322887B2DdF812",
       "0xB78c972C0D3de0Cf8c860679854c05D6F5D8c7bA",
       "0x186Cbd0D42f51F241BCafEe7E06439cded80D0eb",
       "0x86C2C4f2a531d386dc70857B720977F7F50f8c39",
       "0x4252C6b9d61447Ef75196c4e2178B6B7c8e0b540",
       "0x243E9b626Bc3ca61795600ED5295377423cd4E69",
       "0x4D6E11b6E85eC442eD46870ee00b5857B492cFa8",
       "0x8327cb800754Be018ddF94e090610C5E11Af2D36",
       "0x1068d3fa14f0AC485406a0E47F999B54687Ec223",
       "0xfdaE79613aaBf232Ec651a2247dF4B157fD48d1B",
       "0x2E86389aae27Dc5256752C4537Fd490Eea01dF38",
       "0x40b81e081b1aF09875a07376bdAD27507774e9a3",
       "0x88b627Dd6c038890eE5E5bC95FfcA0C4dFe4F1f3",
       "0x7DaeD75C38dcADea86b6CE8885159101082f7829",
       "0xBD02eb4e69487Ce55840Ec6Fc9E4Ce5F02B1b268",
       "0x3F3D087a9f96ad3aF2c18268C97B9afD3B77709c",
       "0x25E00F2c47F19AE2f7B3ed057498549fe1ab2FEB",
       "0x8FFf99A2ac1ced949D762e0A6Ac440C5cf6c9D1D",
       "0xc5237bCD1553e0c11D0fD42261d0b3307c7a5c32",
       "0x20E9424C2c7CC01FDbcBEF065b850892c0280FDa",
       "0x1025009DBe0C501091DDB69f1FE16FDf3fb9c9c3",
       "0xf92ff60907d1769bA004c217087F36164A547fb6",
       "0xEF4c65D1372D23a2635C2ed0D077bB5E4437cC1a",
       "0xf7e46a901a68CD80676B5B49062Ce2D3b9b4f44F",
       "0xE7F3D50298eb592dE049D7683f4b2923FB811Ea6",
       "0xfEcE26D775bbb4E1804E86Afa3A1bA8e1650859B",
       "0xA2a25aC7460F04c7d70485e845393f384F47A366",
       "0x7af1775384ADFfd60dc01f4ed859Dc8dfC3ce0eF",
       "0xfbE6D1e711CC2BC241dfa682CBbFF6D68bf62e67",
       "0xD68911F91f766B37d899C2088f5966bD3Ea39Ba4",
       "0x9aE8b78C4EC536Bde9DbF36E05E68cFBB4b82B15",
       "0x4a8140416fccd8983A113c0C0E92A3D35Dc1ED48",
       "0xAB85BA9258bde200d23C95944D167BA1a06fBce4",
       "0x849E4133c166deb1B912506077208BB37473B0Ab",
       "0xdc26bf8E0e5FEA1d308CAFb75251DFC83dFad4cE",
       "0x6ce5E130d0FA14141520618Aef8E1bdD7fb47C76",
       "0xFC1A5eCaDC976754946A067cF85DFc3f79A4ce38",
       "0x3a8a6D16d881CD031583A9cba012FCB28433F8Fb",
       "0x31Ab616d929C36077719cEA51a8F282f19947361",
       "0x4F50A5D866548E0e1c8384Cf41F814f76311B870",
       "0x38ED4eE74A51860EbDca9b910b16576543A457B7",
       "0x2A8B7BEfE2d09f0c223c97e2B715020B3Abb0671",
       "0xe0DBFd05A5A5797984cC7e8b417572D341952233",
       "0x6Cb6869C786910B464Ec8Ebeaa91A09C3A7A4fB0",
       "0x3804581574d3A6638277322E928A302464b42271",
       "0x3878850b205B8f343Dad2CDC233A07F9337C273e",
       "0xF6a3E963802B045ECDEe414d4Ef8bbf29dF05CeE",
       "0xd6C68D579280f99ebe30A8fda0198c04ACcBbed5",
       "0x7f156E548E11430eF52e7671fA556450aBB99485",
       "0x4986A739d418644e03FC196c4B8Ab28b0d70BEFB",
       "0x9065D36bFa59026d6ADA6b9CC567e5Ce73752065",
       "0xe072F8e02A0Ed5b62136297c7985F01bF9c161c2",
       "0x09b3C6d5330b08C34bd4450448d19b493b18637c",
       "0xA3Bfe361210A9A379706E9eAA7652148b73c7A9c",
       "0x1793581129F85afa702a70e6C031D58547ccaB67",
       "0x54d207445DC1c82FA3Ce48Ae3f8Df3dac45090dF",
       "0x4e84a2A79457DF5781052633e241617409489788",
       "0x6AB7bDF300767C80Bf65ff77c2d7F362D0D93714",
       "0x03e4fAE892Fe74f61BfEd65AB8C57f65204307E5",
       "0xC975806Ab3D9080742EDf223Dcef9Fb6cC4D9EFF",
       "0x2AffB47075B57066F43bedcb19b1f4072b68a4cE",
       "0xA2D7318c4860324bDb13962308eda851db482992",
       "0x430e458d39154fFE80C1f305F8E6ACCE135A5116",
       "0xB5938e7B8926B0ce5e902679f6DD6FffF902EB26",
       "0x212A347460ee42670e8a787387c38a6a890758bd",
       "0x4E27BDaFf2AF810e90445E94401375A1d6c2B4f1",
       "0x7d5e34F0c7DF21663fFBfd5cCbB818c473e07323",
       "0xe605d13196B13AA513984e6d75eC93e52513BB62",
       "0xb4efF2dECc0524D500F5bbdf1E7Ad9D99a377901",
       "0xa4036F5c328A077843c98D8C6187499FEa386545",
       "0xe6fD794dB8aeE9143a01ba2a88026201be328731",
       "0x77dB5D00ca2aE07856dB650008f268659c14502D",
       "0x222FC8Ca3ec66fA22397fdeF9274e5e3a406A09A",
       "0xbf2d6851F0464F44cCa25F8023122C5873f91F91",
       "0x14C95cA271Ad18b0a3fac33Fc66e4B521Af01A43",
       "0x8722cD1990b556a3a6AEB484875a86C82A91F53f",
       "0x7b05360b4303235Feae3821Ba47dEC3c114Cc2bF",
       "0x4aa7705628f57328C42146f74111c14A49870296"
    ],
    "pagination":{
       "currentPage":1,
       "resultsPerPage":200,
       "resultsCurrentPage":91,
       "totalResults":291,
       "totalPages":2,
       "hasNextPage":false,
       "hasPreviousPage":true
    }
 }
