{
    "results":[
       "0x7af1775384ADFfd60dc01f4ed859Dc8dfC3ce0eF",
       "0xfbE6D1e711CC2BC241dfa682CBbFF6D68bf62e67",
       "0xD68911F91f766B37d899C2088f5966bD3Ea39Ba4",
       "0x9aE8b78C4EC536Bde9DbF36E05E68cFBB4b82B15",
       "0x4a8140416fccd8983A113c0C0E92A3D35Dc1ED48",
       "0xAB85BA9258bde200d23C95944D167BA1a06fBce4",
       "0x849E4133c166deb1B912506077208BB37473B0Ab",
       "0xdc26bf8E0e5FEA1d308CAFb75251DFC83dFad4cE",
       "0x6ce5E130d0FA14141520618Aef8E1bdD7fb47C76",
       "0xFC1A5eCaDC976754946A067cF85DFc3f79A4ce38",
       "0x3a8a6D16d881CD031583A9cba012FCB28433F8Fb",
       "0x31Ab616d929C36077719cEA51a8F282f19947361",
       "0x4F50A5D866548E0e1c8384Cf41F814f76311B870",
       "0x38ED4eE74A51860EbDca9b910b16576543A457B7",
       "0x2A8B7BEfE2d09f0c223c97e2B715020B3Abb0671",
       "0xe0DBFd05A5A5797984cC7e8b417572D341952233",
       "0x6Cb6869C786910B464Ec8Ebeaa91A09C3A7A4fB0",
       "0x3804581574d3A6638277322E928A302464b42271",
       "0x3878850b205B8f343Dad2CDC233A07F9337C273e",
       "0xF6a3E963802B045ECDEe414d4Ef8bbf29dF05CeE",
       "0xd6C68D579280f99ebe30A8fda0198c04ACcBbed5",
       "0x7f156E548E11430eF52e7671fA556450aBB99485",
       "0x4986A739d418644e03FC196c4B8Ab28b0d70BEFB",
       "0x9065D36bFa59026d6ADA6b9CC567e5Ce73752065",
       "0xe072F8e02A0Ed5b62136297c7985F01bF9c161c2",
       "0x09b3C6d5330b08C34bd4450448d19b493b18637c",
       "0xA3Bfe361210A9A379706E9eAA7652148b73c7A9c",
       "0x1793581129F85afa702a70e6C031D58547ccaB67",
       "0x54d207445DC1c82FA3Ce48Ae3f8Df3dac45090dF",
       "0x4e84a2A79457DF5781052633e241617409489788",
       "0x6AB7bDF300767C80Bf65ff77c2d7F362D0D93714",
       "0x03e4fAE892Fe74f61BfEd65AB8C57f65204307E5",
       "0x2AffB47075B57066F43bedcb19b1f4072b68a4cE",
       "0xA2D7318c4860324bDb13962308eda851db482992",
       "0xB5938e7B8926B0ce5e902679f6DD6FffF902EB26",
       "0x212A347460ee42670e8a787387c38a6a890758bd",
       "0x4E27BDaFf2AF810e90445E94401375A1d6c2B4f1",
       "0x7d5e34F0c7DF21663fFBfd5cCbB818c473e07323",
       "0xe605d13196B13AA513984e6d75eC93e52513BB62",
       "0xb4efF2dECc0524D500F5bbdf1E7Ad9D99a377901",
       "0xa4036F5c328A077843c98D8C6187499FEa386545",
       "0xe6fD794dB8aeE9143a01ba2a88026201be328731",
       "0x77dB5D00ca2aE07856dB650008f268659c14502D",
       "0x222FC8Ca3ec66fA22397fdeF9274e5e3a406A09A",
       "0xbf2d6851F0464F44cCa25F8023122C5873f91F91",
       "0x14C95cA271Ad18b0a3fac33Fc66e4B521Af01A43",
       "0x8722cD1990b556a3a6AEB484875a86C82A91F53f",
       "0x7b05360b4303235Feae3821Ba47dEC3c114Cc2bF",
       "0x4aa7705628f57328C42146f74111c14A49870296"
    ],
    "pagination":{
       "currentPage":1,
       "resultsPerPage":200,
       "resultsCurrentPage":49,
       "totalResults":249,
       "totalPages":2,
       "hasNextPage":false,
       "hasPreviousPage":true
    }
 }
